Calculate confidence intervals of proportion or difference between proportions — propCI • interpretCI
…
alpha
numeric confidence level

digits
integer indicating the number of decimal places

alternative
A character string specifying the alternative hypothesis, must be one of "two.sided" (default), "greater" or "less".

    Examples

propCI(acs$sex)
#> $data
#> # A tibble: 857 × 1
#>    value 
#>    <chr> 
#>  1 Male  
#>  2 Female
#>  3 Female
#>  4 Female
#>  5 Male  
#>  6 Female
#>  7 Male  
#>  8 Male  
#>  9 Female
#> 10 Male  
#> # … with 847 more rows
#> 
#> $result
#>   alpha   n  df         p P         se critical         ME     lower     upper
#> 1  0.05 857 856 0.6651109 0 0.01612156 1.959964 0.03159768 0.6335132 0.6967085
#>                       CI        z pvalue alternative
#> 1 0.67 [95CI 0.63; 0.70] 41.25598      0   two.sided
#> 
#> $call
#> propCI(x = acs$sex)
#> 
#> attr(,"measure")
#> [1] "prop"
propCI(acs$sex,acs$DM)
#> $data
#> # A tibble: 857 × 2
#>    x      y    
#>    <chr>  <chr>
#>  1 Male   Yes  
#>  2 Female No   
#>  3 Female No   
#>  4 Female No   
#>  5 Male   Yes  
#>  6 Female Yes  
#>  7 Male   Yes  
#>  8 Male   Yes  
#>  9 Female Yes  
#> 10 Male   Yes  
#> # … with 847 more rows
…
